<?xml version="1.0" encoding="UTF-8" standalone="no"?>
<svg
   xmlns:dc="http://purl.org/dc/elements/1.1/"
   xmlns:cc="http://creativecommons.org/ns#"
   xmlns:rdf="http://www.w3.org/1999/02/22-rdf-syntax-ns#"
   xmlns:svg="http://www.w3.org/2000/svg"
   xmlns="http://www.w3.org/2000/svg"
   xmlns:sodipodi="http://sodipodi.sourceforge.net/DTD/sodipodi-0.dtd"
   xmlns:inkscape="http://www.inkscape.org/namespaces/inkscape"
   data-name="Layer 1"
   id="Layer_1"
   viewBox="0 0 140 140"
   version="1.1"
   sodipodi:docname="see.svg"
   inkscape:version="0.92.1 r15371">
  <metadata
     id="metadata23">
    <rdf:RDF>
      <cc:Work
         rdf:about="">
        <dc:format>image/svg+xml</dc:format>
        <dc:type
           rdf:resource="http://purl.org/dc/dcmitype/StillImage" />
      </cc:Work>
    </rdf:RDF>
  </metadata>
  <sodipodi:namedview
     pagecolor="#ffffff"
     bordercolor="#666666"
     borderopacity="1"
     objecttolerance="10"
     gridtolerance="10"
     guidetolerance="10"
     inkscape:pageopacity="0"
     inkscape:pageshadow="2"
     inkscape:window-width="1920"
     inkscape:window-height="1136"
     id="namedview21"
     showgrid="false"
     inkscape:zoom="1.6857143"
     inkscape:cx="71.186441"
     inkscape:cy="70"
     inkscape:window-x="0"
     inkscape:window-y="27"
     inkscape:window-maximized="1"
     inkscape:current-layer="Layer_1" />
  <defs
     id="defs4">
    <style
       id="style2">.cls-1{fill:#d77165;}.cls-2{fill:#525354;}.cls-3{fill:#fff;}.cls-4{fill:#a4d5dc;}.cls-5{fill:#d7dadb;}</style>
  </defs>
  <title
     id="title6" />
  <circle
     class="cls-1"
     cx="70"
     cy="70"
     r="64"
     id="circle8" />
  <path
     class="cls-2"
     d="M70,43.49c-25,0-45,22.74-48.48,26.87a1,1,0,0,0,0,1.28C25,75.77,45,98.51,70,98.51s45-22.74,48.48-26.87a1,1,0,0,0,0-1.28C115,66.23,95,43.49,70,43.49Z"
     id="path10" />
  <path
     class="cls-3"
     d="M70,42.49c-25,0-45,22.74-48.48,26.87a1,1,0,0,0,0,1.28C25,74.77,45,97.51,70,97.51s45-22.74,48.48-26.87a1,1,0,0,0,0-1.28C115,65.23,95,42.49,70,42.49Z"
     id="path12" />
  <circle
     class="cls-4"
     cx="70"
     cy="70"
     r="26.5"
     id="circle14" />
  <circle
     class="cls-2"
     cx="70"
     cy="70"
     r="13"
     id="circle16" />
  <circle
     class="cls-5"
     cx="76"
     cy="66"
     r="2"
     id="circle18" />
  <path
     style="opacity:1;fill:#00aad4;fill-opacity:1;stroke:none;stroke-width:0.59322035;stroke-opacity:1"
     d="M 56.946259,132.38767 C 40.479016,128.81767 25.656687,118.60497 16.590371,104.58214 -1.4905836,76.61643 4.890926,39.853359 31.382853,19.364524 49.846728,5.0845769 75.390308,2.2975383 96.865638,12.219752 c 9.831022,4.542211 19.711772,12.95786 25.779782,21.957211 24.84994,36.854451 5.97451,86.259117 -37.340335,97.734777 -6.84794,1.81427 -21.08351,2.05317 -28.358826,0.47593 z M 76.40678,96.842681 c 4.513784,-0.793925 10.640195,-2.693031 13.792373,-4.275458 1.223516,-0.614215 2.228663,-0.911121 2.233658,-0.659786 0.0047,0.25133 0.205207,0.177201 0.444915,-0.164731 0.447413,-0.638222 5.68788,-3.808475 6.505432,-3.935501 0.250707,-0.03897 0.722772,-0.384727 1.049042,-0.76838 0.83042,-0.976477 5.42956,-4.462554 5.88739,-4.462554 0.20772,0 1.18681,-0.92155 2.17575,-2.047891 0.98894,-1.126342 2.28926,-2.20379 2.88962,-2.394333 0.60035,-0.190548 2.60112,-2.227987 4.44615,-4.527653 L 119.18573,69.425187 113.6649,63.9285 C 110.62844,60.905323 105.88882,56.76807 103.13241,54.734603 97.300872,50.432552 86.671016,45.08989 81.186202,43.704244 62.940975,39.094893 43.621217,46.369932 25.77004,64.571726 c -2.493014,2.541978 -4.532752,4.931577 -4.532752,5.310211 0,0.378635 2.276627,2.910588 5.05917,5.626565 2.782544,2.71597 4.931732,5.270229 4.775974,5.676128 -0.164567,0.428856 0.04485,0.612114 0.499934,0.437482 0.707553,-0.271511 8.431074,5.058093 9.307517,6.422636 0.199614,0.310783 0.538866,0.532309 0.753894,0.492278 0.215028,-0.04004 2.053826,0.843643 4.086218,1.96372 2.032393,1.120071 4.295895,2.215808 5.030005,2.434968 0.73411,0.219165 1.334746,0.602943 1.334746,0.852849 0,0.249906 0.333686,0.462836 0.741525,0.473176 0.407839,0.01032 2.23251,0.461413 4.054825,1.002382 4.251702,1.262165 11.599382,2.515901 13.89009,2.37007 0.978814,-0.06232 3.514831,-0.418494 5.635594,-0.79151 z"
     id="path4500"
     inkscape:connector-curvature="0" />
</svg>
